-------------------------------------------------------------------------------
Test set: br.com.dbc.petshop.entity.AnimalTest
-------------------------------------------------------------------------------
Tests run: 1, Failures: 0, Errors: 0, Skipped: 0, Time elapsed: 2.282 sec
